SSPS [4102|6006] Data Analytics[in the Social Sciences|for Social Research]
…
.center[<img src = 'https://education.rstudio.com/blog/2020/07/teaching-the-tidyverse-in-2020-part-1-getting-started/img/tidyverse-packages.png' width = "95%"></img>]

Image from [Mine Çetinkaya-Rundel](https://education.rstudio.com/blog/2020/07/teaching-the-tidyverse-in-2020-part-1-getting-started/)

---

## nycflights13::flights

``` r
nycflights13::flights # (or `flights` for short)
```

```
## # A tibble: 336,776 × 19
##     year month   day dep_time sched_dep_time dep_delay arr_time sched_arr_time
##    <int> <int> <int>    <int>          <int>     <dbl>    <int>          <int>
##  1  2013     1     1      517            515         2      830            819
##  2  2013     1     1      533            529         4      850            830
##  3  2013     1     1      542            540         2      923            850
##  4  2013     1     1      544            545        -1     1004           1022
##  5  2013     1     1      554            600        -6      812            837
##  6  2013     1     1      554            558        -4      740            728
##  7  2013     1     1      555            600        -5      913            854
##  8  2013     1     1      557            600        -3      709            723
##  9  2013     1     1      557            600        -3      838            846
## 10  2013     1     1      558            600        -2      753            745
## # ℹ 336,766 more rows
## # ℹ 11 more variables: arr_delay <dbl>, carrier <chr>, flight <int>,
## #   tailnum <chr>, origin <chr>, dest <chr>, air_time <dbl>, distance <dbl>,
## #   hour <dbl>, minute <dbl>, time_hour <dttm>
```
…
---

## Filter rows with filter()

You can filter rows (i.e. records) of your data frame with the function `filter()`.

> The first argument is the name of the data frame. The second and subsequent arguments are the expressions that filter the data frame. For example, we can select all flights on January 1st with:

``` r
dplyr::filter(flights, month == 1, day == 1)
```

```
## # A tibble: 842 × 19
##     year month   day dep_time sched_dep_time dep_delay arr_time sched_arr_time
##    <int> <int> <int>    <int>          <int>     <dbl>    <int>          <int>
##  1  2013     1     1      517            515         2      830            819
##  2  2013     1     1      533            529         4      850            830
##  3  2013     1     1      542            540         2      923            850
##  4  2013     1     1      544            545        -1     1004           1022
##  5  2013     1     1      554            600        -6      812            837
##  6  2013     1     1      554            558        -4      740            728
##  7  2013     1     1      555            600        -5      913            854
##  8  2013     1     1      557            600        -3      709            723
##  9  2013     1     1      557            600        -3      838            846
## 10  2013     1     1      558            600        -2      753            745
## # ℹ 832 more rows
## # ℹ 11 more variables: arr_delay <dbl>, carrier <chr>, flight <int>,
## #   tailnum <chr>, origin <chr>, dest <chr>, air_time <dbl>, distance <dbl>,
## #   hour <dbl>, minute <dbl>, time_hour <dttm>
```
…
## Filter for multiple values in the same columns

Let's say you want to filter all rows where one column takes either one value OR another value.

For example, let's filter for rows where `sched_dep_time` is either 529 or 600.

### Option 1

``` r
dplyr::filter(flights, sched_dep_time == 529 | sched_dep_time == 545)
```

```
## # A tibble: 542 × 19
##     year month   day dep_time sched_dep_time dep_delay arr_time sched_arr_time
##    <int> <int> <int>    <int>          <int>     <dbl>    <int>          <int>
##  1  2013     1     1      533            529         4      850            830
##  2  2013     1     1      544            545        -1     1004           1022
##  3  2013     1     2      536            529         7      840            828
##  4  2013     1     2      539            545        -6      959           1022
##  5  2013     1     3      543            545        -2     1009           1022
##  6  2013     1     4      608            545        23     1039           1022
##  7  2013     1     5      602            545        17     1035           1022
##  8  2013     1     6      629            545        44     1156           1022
##  9  2013    10     1      536            545        -9      809            855
## 10  2013    10     1      539            545        -6      801            827
## # ℹ 532 more rows
## # ℹ 11 more variables: arr_delay <dbl>, carrier <chr>, flight <int>,
## #   tailnum <chr>, origin <chr>, dest <chr>, air_time <dbl>, distance <dbl>,
## #   hour <dbl>, minute <dbl>, time_hour <dttm>
```
…
Remember that when operating with dplyr verbs all your operations are vector operations (as you are operating on multiple values across rows or columns).

---

## Filter for multiple values in the same columns

### Option 2

``` r
dplyr::filter(flights, sched_dep_time %in% c(529, 545))
```

```
## # A tibble: 542 × 19
##     year month   day dep_time sched_dep_time dep_delay arr_time sched_arr_time
##    <int> <int> <int>    <int>          <int>     <dbl>    <int>          <int>
##  1  2013     1     1      533            529         4      850            830
##  2  2013     1     1      544            545        -1     1004           1022
##  3  2013     1     2      536            529         7      840            828
##  4  2013     1     2      539            545        -6      959           1022
##  5  2013     1     3      543            545        -2     1009           1022
##  6  2013     1     4      608            545        23     1039           1022
##  7  2013     1     5      602            545        17     1035           1022
##  8  2013     1     6      629            545        44     1156           1022
##  9  2013    10     1      536            545        -9      809            855
## 10  2013    10     1      539            545        -6      801            827
## # ℹ 532 more rows
## # ℹ 11 more variables: arr_delay <dbl>, carrier <chr>, flight <int>,
## #   tailnum <chr>, origin <chr>, dest <chr>, air_time <dbl>, distance <dbl>,
## #   hour <dbl>, minute <dbl>, time_hour <dttm>
```

---

## Sort rows with arrange()

If you provide more than one column name, each additional column will be used to break ties in the values of preceding columns.

``` r
dplyr::arrange(flights, year, month)
```

```
## # A tibble: 336,776 × 19
##     year month   day dep_time sched_dep_time dep_delay arr_time sched_arr_time
##    <int> <int> <int>    <int>          <int>     <dbl>    <int>          <int>
##  1  2013     1     1      517            515         2      830            819
##  2  2013     1     1      533            529         4      850            830
##  3  2013     1     1      542            540         2      923            850
##  4  2013     1     1      544            545        -1     1004           1022
##  5  2013     1     1      554            600        -6      812            837
##  6  2013     1     1      554            558        -4      740            728
##  7  2013     1     1      555            600        -5      913            854
##  8  2013     1     1      557            600        -3      709            723
##  9  2013     1     1      557            600        -3      838            846
## 10  2013     1     1      558            600        -2      753            745
## # ℹ 336,766 more rows
## # ℹ 11 more variables: arr_delay <dbl>, carrier <chr>, flight <int>,
## #   tailnum <chr>, origin <chr>, dest <chr>, air_time <dbl>, distance <dbl>,
## #   hour <dbl>, minute <dbl>, time_hour <dttm>
```

---

and with `desc()` I sort rows by the descending order of a variable

``` r
dplyr::arrange(flights, desc(dep_delay))
```

```
## # A tibble: 336,776 × 19
##     year month   day dep_time sched_dep_time dep_delay arr_time sched_arr_time
##    <int> <int> <int>    <int>          <int>     <dbl>    <int>          <int>
##  1  2013     1     9      641            900      1301     1242           1530
##  2  2013     6    15     1432           1935      1137     1607           2120
##  3  2013     1    10     1121           1635      1126     1239           1810
##  4  2013     9    20     1139           1845      1014     1457           2210
##  5  2013     7    22      845           1600      1005     1044           1815
##  6  2013     4    10     1100           1900       960     1342           2211
##  7  2013     3    17     2321            810       911      135           1020
##  8  2013     6    27      959           1900       899     1236           2226
##  9  2013     7    22     2257            759       898      121           1026
## 10  2013    12     5      756           1700       896     1058           2020
## # ℹ 336,766 more rows
## # ℹ 11 more variables: arr_delay <dbl>, carrier <chr>, flight <int>,
## #   tailnum <chr>, origin <chr>, dest <chr>, air_time <dbl>, distance <dbl>,
## #   hour <dbl>, minute <dbl>, time_hour <dttm>
```
…
---

## Select columns with select()

If you want to simplify your data frame by keeping only some of the columns (this is useful if your data frame contains many columns).

``` r
dplyr::select(flights, year, month, day)
```

```
## # A tibble: 336,776 × 3
##     year month   day
##    <int> <int> <int>
##  1  2013     1     1
##  2  2013     1     1
##  3  2013     1     1
##  4  2013     1     1
##  5  2013     1     1
##  6  2013     1     1
##  7  2013     1     1
##  8  2013     1     1
##  9  2013     1     1
## 10  2013     1     1
## # ℹ 336,766 more rows
```

---

## Select columns with select() while changing their names

``` r
dplyr::select(flights, yr = year, month, day)
```

```
## # A tibble: 336,776 × 3
##       yr month   day
##    <int> <int> <int>
##  1  2013     1     1
##  2  2013     1     1
##  3  2013     1     1
##  4  2013     1     1
##  5  2013     1     1
##  6  2013     1     1
##  7  2013     1     1
##  8  2013     1     1
##  9  2013     1     1
## 10  2013     1     1
## # ℹ 336,766 more rows
```
…
---

## Grouping rows

> Use `group_by()` to divide your dataset into groups meaningful for your analysis.

> `group_by()` doesn’t change the data but, if you look closely at the output, you’ll notice that the output indicates that it is "grouped by" month (Groups: month [12]). This means subsequent operations will now work “by month”. group_by() adds this grouped feature (referred to as class) to the data frame, which changes the behavior of the subsequent verbs applied to the data.

``` r
dplyr::group_by(flights, month)
```

```
## # A tibble: 336,776 × 19
## # Groups:   month [12]
##     year month   day dep_time sched_dep_time dep_delay arr_time sched_arr_time
##    <int> <int> <int>    <int>          <int>     <dbl>    <int>          <int>
##  1  2013     1     1      517            515         2      830            819
##  2  2013     1     1      533            529         4      850            830
##  3  2013     1     1      542            540         2      923            850
##  4  2013     1     1      544            545        -1     1004           1022
##  5  2013     1     1      554            600        -6      812            837
##  6  2013     1     1      554            558        -4      740            728
##  7  2013     1     1      555            600        -5      913            854
##  8  2013     1     1      557            600        -3      709            723
##  9  2013     1     1      557            600        -3      838            846
## 10  2013     1     1      558            600        -2      753            745
## # ℹ 336,766 more rows
## # ℹ 11 more variables: arr_delay <dbl>, carrier <chr>, flight <int>,
## #   tailnum <chr>, origin <chr>, dest <chr>, air_time <dbl>, distance <dbl>,
## #   hour <dbl>, minute <dbl>, time_hour <dttm>
```
…
---

## Grouped summaries with `group_by()` and `summarise()` and pipes `|>`.

Let's say for each day, we want to summarise the average delay.

``` r
flights |>
* group_by(year, month, day) |>
* summarise(delay = mean(dep_delay, na.rm = TRUE))
```

```
## # A tibble: 365 × 4
## # Groups:   year, month [12]
##     year month   day delay
##    <int> <int> <int> <dbl>
##  1  2013     1     1 11.5 
##  2  2013     1     2 13.9 
##  3  2013     1     3 11.0 
##  4  2013     1     4  8.95
##  5  2013     1     5  5.73
##  6  2013     1     6  7.15
##  7  2013     1     7  5.42
##  8  2013     1     8  2.55
##  9  2013     1     9  2.28
## 10  2013     1    10  2.84
## # ℹ 355 more rows
```
…
---

## Grouped summaries with `group_by()` and `summarise()` and pipes `|>`.

Let's say that you have a non-numeric variable (character or factor). How can you summarise it? You can use `count()` on your grouped data frame. 

``` r
us_population_by_county |>
  dplyr::group_by(state) |>
  dplyr::count()
```

```
## # A tibble: 51 × 2
## # Groups:   state [51]
##    state                       n
##    <chr>                   <int>
##  1 " Alabama"                 67
##  2 " Alaska"                  29
##  3 " Arizona"                 15
##  4 " Arkansas"                75
##  5 " California"              58
##  6 " Colorado"                64
##  7 " Connecticut"              8
##  8 " Delaware"                 3
##  9 " District of Columbia"     1
## 10 " Florida"                 67
## # ℹ 41 more rows
```
…
# Piping all together with `|>`

---

## Piping all together with `|>`: Example 1

``` r
us_population_by_county |>
  dplyr::group_by(state) |>
  dplyr::summarise(tot_pop = sum(population / 1000000),
                   mean_pop = mean(population / 1000))
```

```
## # A tibble: 51 × 3
##    state                   tot_pop mean_pop
##    <chr>                     <dbl>    <dbl>
##  1 " Alabama"                4.78      71.3
##  2 " Alaska"                 0.710     24.5
##  3 " Arizona"                6.39     426. 
##  4 " Arkansas"               2.92      38.9
##  5 " California"            37.3      642. 
##  6 " Colorado"               5.03      78.6
##  7 " Connecticut"            3.57     447. 
##  8 " Delaware"               0.898    299. 
##  9 " District of Columbia"   0.602    602. 
## 10 " Florida"               18.8      281. 
## # ℹ 41 more rows
```
…
