SSPS [4102|6006] Data Analytics[in the Social Sciences|for Social Research]
…
---
.small[
The `unnest_tokens` function takes a tidy data frame where each row contains some text, here `text`, in a dedicated column and additional information (i.e., metadata), here `book` with the title of the book and return another tidy data frame where the text column is replaced by the tokenised text (in this case using "words").  
]

``` r
library(tidytext)
frankenstein |> # From before
  tidytext::unnest_tokens(output = word, # Output column name
                          input = text, # Input column with text
                          token = "words") # Tokenize what?
```

```
## # A tibble: 72,841 × 2
##    gutenberg_id word         
##           <int> <chr>        
##  1        41445 transcriber’s
##  2        41445 note         
##  3        41445 this         
##  4        41445 text         
##  5        41445 was          
##  6        41445 produced     
##  7        41445 from         
##  8        41445 a            
##  9        41445 photo        
## 10        41445 reprint      
## # ℹ 72,831 more rows
```
…
---

And after some cleaning we tokenize again but this time we use n-grams

``` r
library(tidytext)
frankenstein |> # From before
  tidytext::unnest_tokens(output = word, # Output column name
                          input = text, # Input column with text
                          token = "ngrams", # Tokenize what?
                          n = 3) # How many grams?
```

```
## # A tibble: 61,592 × 2
##    gutenberg_id word              
##           <int> <chr>             
##  1        41445 <NA>              
##  2        41445 <NA>              
##  3        41445 <NA>              
##  4        41445 the event on      
##  5        41445 event on which    
##  6        41445 on which this     
##  7        41445 which this fiction
##  8        41445 this fiction is   
##  9        41445 fiction is founded
## 10        41445 is founded has    
## # ℹ 61,582 more rows
```

---

## Difference between `token = "words"` and `token = "ngrams"`

.small[

- Note that the word "preface", which now appears on the first row of the data frame `frankenstein` doesn't appear when we use tri-grams as is single word in its line. 

.pull-left[

#### Words

```
## # A tibble: 72,765 × 2
##    gutenberg_id word   
##           <int> <chr>  
##  1        41445 preface
##  2        41445 the    
##  3        41445 event  
##  4        41445 on     
##  5        41445 which  
##  6        41445 this   
##  7        41445 fiction
##  8        41445 is     
##  9        41445 founded
## 10        41445 has    
## # ℹ 72,755 more rows
```

]

.pull-right[

#### Trigrams (3-grams)

```
## # A tibble: 61,592 × 2
##    gutenberg_id word              
##           <int> <chr>             
##  1        41445 <NA>              
##  2        41445 <NA>              
##  3        41445 <NA>              
##  4        41445 the event on      
##  5        41445 event on which    
##  6        41445 on which this     
##  7        41445 which this fiction
##  8        41445 this fiction is   
##  9        41445 fiction is founded
## 10        41445 is founded has    
## # ℹ 61,582 more rows
```
…
