SSPS [4102|6006] Data Analytics[in the Social Sciences|for Social Research]
…
---

## Let's Explore the results

### What are the tokens that predict more recent years (remember formula `election_year ~ text`)

``` r
tidy(linear_fit) |>
  dplyr::arrange(-estimate)
```

```
## # A tibble: 1,001 × 5
##    term                     estimate std.error statistic   p.value
##    <chr>                       <dbl>     <dbl>     <dbl>     <dbl>
##  1 (Intercept)                 2012.     0.283  7119.    5.99e-163
##  2 tfidf_text_congresswoman     431.   763.        0.566 5.74e-  1
##  3 tfidf_text_commander         426.   455.        0.936 3.53e-  1
##  4 tfidf_text_black             282.   351.        0.804 4.25e-  1
##  5 tfidf_text_income            274.   379.        0.722 4.74e-  1
##  6 tfidf_text_affairs           258.   292.        0.885 3.80e-  1
##  7 tfidf_text_east              251.   270.        0.930 3.57e-  1
##  8 tfidf_text_bin               192.   251.        0.766 4.47e-  1
##  9 tfidf_text_6                 177.   228.        0.776 4.41e-  1
## 10 tfidf_text_fence             167.   304.        0.550 5.84e-  1
## # ℹ 991 more rows
```

---

### And What are the tokens that predict further in the past (remember formula `election_year ~ text`)

``` r
## Further in the past
tidy(linear_fit) |>
  arrange(estimate)
```

```
## # A tibble: 1,001 × 5
##    term                estimate std.error statistic p.value
##    <chr>                  <dbl>     <dbl>     <dbl>   <dbl>
##  1 tfidf_text_bachmann    -435.      770.    -0.566   0.574
##  2 tfidf_text_billion     -349.      372.    -0.938   0.352
##  3 tfidf_text_higher      -305.      425.    -0.717   0.476
##  4 tfidf_text_middle      -302.      338.    -0.895   0.375
##  5 tfidf_text_chief       -300.      277.    -1.08    0.283
##  6 tfidf_text_defense     -265.      334.    -0.792   0.432
##  7 tfidf_text_havent      -177.      218.    -0.813   0.420
##  8 tfidf_text_hunting     -161.      233.    -0.694   0.491
##  9 tfidf_text_hope        -151.      169.    -0.894   0.375
## 10 tfidf_text_oil         -150.      363.    -0.413   0.681
## # ℹ 991 more rows
```
…
---

## Let's explore the results on our test data!

``` r
logistic_predictions <- 
  logistic_fit |>
  predict(debate_test) |>
  dplyr::bind_cols(debate_test)
logistic_predictions
```

```
## # A tibble: 37 × 7
##    .pred_class     speaker        text  type  election_year date       candidate
##    <fct>           <fct>          <chr> <chr>         <dbl> <date>         <dbl>
##  1 Donald Trump    Hillary Clint… "Wel… Pres           2016 2016-10-19         1
##  2 Donald Trump    Donald Trump   "Fir… Pres           2016 2016-09-26         1
##  3 Donald Trump    Hillary Clint… "Dem… Dem            2016 2015-10-13         1
##  4 Donald Trump    Donald Trump   "Wel… Pres           2020 2020-09-29         1
##  5 Donald Trump    Donald Trump   "I d… Rep            2016 2015-09-16         1
##  6 Donald Trump    Hillary Clint… "… t… Pres           2016 2016-10-19         1
##  7 Donald Trump    Hillary Clint… "Wel… Dem            2016 2015-10-13         1
##  8 Donald Trump    Hillary Clint… "Wel… Pres           2016 2016-10-19         1
##  9 Donald Trump    Donald Trump   "I t… Rep            2016 2016-12-15         1
## 10 Hillary Clinton Donald Trump   "And… Pres           2016 2016-10-09         1
## # ℹ 27 more rows
```
…
